{
  "extends": [
    "./tslint.cc.json"
  ],
  "rulesDirectory": [
    "./node_modules/tslint-microsoft-contrib"
  ],
  "rules": {
    "mocha-unneeded-done": true,
    "no-banned-terms": true,
    "no-delete-expression": true,
    "no-for-in": true,
    "no-relative-imports": false,
    "no-default-import": false,
    "ordered-imports": false,
    "no-default-export": false,
    "variable-name": false,
    "no-small-switch": false,
    "object-literal-sort-keys": false,
    "max-classes-per-file": false,
    "no-duplicate-imports": false,
    "no-string-literal": false,
    "no-magic-numbers": false,
    "no-console": false,
    "interface-name": false,
    "switch-default": false,
    "member-ordering": false,
    "no-null-keyword": false,
    "no-any": false,
    "no-void-expression": false,
    "await-promise": [
      true,
      "Bluebird"
    ]
  }
}